(
(0.0000000E+00 1.9434384E+00 )
(1.4351936E+04 1.7121034E+00 )
(3.0472044E+04 1.5322268E+00 )
(4.6567364E+04 1.4295104E+00 )
(5.8994141E+04 1.6353986E+00 )
(6.6050303E+04 1.8926722E+00 )
(7.1338293E+04 2.0984875E+00 )
(8.3831170E+04 2.0986150E+00 )
(9.8133531E+04 2.0216005E+00 )
(1.1067598E+05 1.8674075E+00 )
(1.2679609E+05 1.6875309E+00 )
(1.4104061E+05 1.7905569E+00 )
(1.4989800E+05 1.9964087E+00 )
(1.7127305E+05 2.1252276E+00 )
(1.8022958E+05 2.0224384E+00 )
(1.8921090E+05 1.8424889E+00 )
(2.0353805E+05 1.6883142E+00 )
(2.2140154E+05 1.6370562E+00 )
(2.3206015E+05 1.7914859E+00 )
(2.4635424E+05 1.7401915E+00 )
(2.5889670E+05 1.5859985E+00 )
(2.7140610E+05 1.5346859E+00 )
(2.8749316E+05 1.4576896E+00 )
(3.0179552E+05 1.3806750E+00 )
(3.2141892E+05 1.4065955E+00 )
(3.2849987E+05 1.5867089E+00 )
(3.4096796E+05 1.6639967E+00 )
(3.5884797E+05 1.5612985E+00 )
(3.7672799E+05 1.4586003E+00 )
(3.9996210E+05 1.3559568E+00 )
(4.2317142E+05 1.3304735E+00 )
(4.3743247E+05 1.3820594E+00 )
(4.4992534E+05 1.3821869E+00 )
(4.6245953E+05 1.2537140E+00 )
(4.6606198E+05 1.1508701E+00 )
(4.7679494E+05 1.0738192E+00 )
(5.0178070E+05 1.0740742E+00 )
(5.2321358E+05 1.0228526E+00 )
(5.5534638E+05 9.9746042E-01 )
(5.7673796E+05 1.0748392E+00 )
(5.8381891E+05 1.2549527E+00 )
(5.9268455E+05 1.4350843E+00 )
(6.0877161E+05 1.3580880E+00 )
(6.2130580E+05 1.2296151E+00 )
(6.4275521E+05 1.1269534E+00 )
(6.5880096E+05 1.1785575E+00 )
(6.6586538E+05 1.4101111E+00 )
(6.6936041E+05 1.6416282E+00 )
(6.7820127E+05 1.8989201E+00 )
(6.8779884E+05 1.9278330E+00 )
(6.9440111E+05 1.8417641E+00 )
(6.9980800E+05 1.7556830E+00 )
(7.0581535E+05 1.6609944E+00 )
(7.1181717E+05 1.5835329E+00 )
(7.1842498E+05 1.4802368E+00 )
(7.2980602E+05 1.4028303E+00 )
(7.4116769E+05 1.3857190E+00 )
(7.4591325E+05 1.4977446E+00 )
(7.4886573E+05 1.6097520E+00 )
(7.5180991E+05 1.7476001E+00 )
(7.5535732E+05 1.8682272E+00 )
(7.5831257E+05 1.9716209E+00 )
(7.6246044E+05 2.0836404E+00 )
(7.7020552E+05 2.1612422E+00 )
(7.8218702E+05 2.0752281E+00 )
(7.8641513E+05 1.9374532E+00 )
(7.9361510E+05 1.8513904E+00 )
(8.0080677E+05 1.7911684E+00 )
(8.0441505E+05 1.7222961E+00 )
(8.0981918E+05 1.6448286E+00 )
(8.1760023E+05 1.6104535E+00 )
(8.2658220E+05 1.5588634E+00 )
(8.3373790E+05 1.6106182E+00 )
(8.3849176E+05 1.6968030E+00 )
(8.4206407E+05 1.7399077E+00 )
(8.4801608E+05 1.8174911E+00 )
(8.5457408E+05 1.8692398E+00 )
(8.6176298E+05 1.8176314E+00 )
(8.7074218E+05 1.7746549E+00 )
(8.7852601E+05 1.7316662E+00 )
(8.8989874E+05 1.6801005E+00 )
(8.9946181E+05 1.6801981E+00 )
(9.0902763E+05 1.6716821E+00 )
(9.1439855E+05 1.6975778E+00 )
(9.2214917E+05 1.7579523E+00 )
(9.2690857E+05 1.8269099E+00 )
(9.3225182E+05 1.9389417E+00 )
(9.3820936E+05 1.9992979E+00 )
(9.4358858E+05 1.9993528E+00 )
(9.5255395E+05 1.9994443E+00 )
(9.6450778E+05 1.9995663E+00 )
(9.7168561E+05 1.9824123E+00 )
(9.7589435E+05 1.9049326E+00 )
(9.8189893E+05 1.8188576E+00 )
(9.8788691E+05 1.7844641E+00 )
(9.9625736E+05 1.7759359E+00 )
(1.0010195E+06 1.8362800E+00 )
(1.0039554E+06 1.9999689E+00 )
(1.0063102E+06 2.1119702E+00 )
(1.0080562E+06 2.2584197E+00 )
(1.0128046E+06 2.3618317E+00 )
(1.0169331E+06 2.5341465E+00 )
(1.0216814E+06 2.6375585E+00 )
(1.0300297E+06 2.6979392E+00 )
(1.0348334E+06 2.6290791E+00 )
(1.0402347E+06 2.5602252E+00 )
(1.0414578E+06 2.4741014E+00 )
(1.0456665E+06 2.3966217E+00 )
(1.0498753E+06 2.3191419E+00 )
(1.0540868E+06 2.2330486E+00 )
(1.0600969E+06 2.1297464E+00 )
(1.0643112E+06 2.0350395E+00 )
(1.0691148E+06 1.9661794E+00 )
(1.0739185E+06 1.8973194E+00 )
(1.0805069E+06 1.8543185E+00 )
(1.0876792E+06 1.8543917E+00 )
(1.0918105E+06 2.0180929E+00 )
(1.0918409E+06 1.9233432E+00 )
(1.0959639E+06 2.1128852E+00 )
(1.0983132E+06 2.2421136E+00 )
(1.1000896E+06 2.2938136E+00 )
(1.1018550E+06 2.3799679E+00 )
(1.1054190E+06 2.4489133E+00 )
(1.1095752E+06 2.5350920E+00 )
(1.1173314E+06 2.5782394E+00 )
(1.1239115E+06 2.5610793E+00 )
(1.1269221E+06 2.4922009E+00 )
(1.1323124E+06 2.4578014E+00 )
(1.1353285E+06 2.3716959E+00 )
(1.1413276E+06 2.3028481E+00 )
(1.1479215E+06 2.2426200E+00 )
(1.1527197E+06 2.1909872E+00 )
(1.1569284E+06 2.1135074E+00 )
(1.1617293E+06 2.0532610E+00 )
(1.1676924E+06 2.0963900E+00 )
(1.1688490E+06 2.2169927E+00 )
(1.1724075E+06 2.3031653E+00 )
(1.1741646E+06 2.4151604E+00 )
(1.1759217E+06 2.5271556E+00 )
(1.1782765E+06 2.6391568E+00 )
(1.1806313E+06 2.7511581E+00 )
(1.1853824E+06 2.8459565E+00 )
(1.1871478E+06 2.9321108E+00 )
(1.1906897E+06 3.0699651E+00 )
(1.1942537E+06 3.1389105E+00 )
(1.2008255E+06 3.1475912E+00 )
(1.2056236E+06 3.0959584E+00 )
(1.2110250E+06 3.0271045E+00 )
(1.2122453E+06 2.9495942E+00 )
(1.2170573E+06 2.8548934E+00 )
(1.2194702E+06 2.7860090E+00 )
(1.2248743E+06 2.7085415E+00 )
(1.2290996E+06 2.5793801E+00 )
(1.2339061E+06 2.5019065E+00 )
(1.2387180E+06 2.4072057E+00 )
(1.2441139E+06 2.3555790E+00 )
(1.2471300E+06 2.2694734E+00 )
(1.2543300E+06 2.1834106E+00 )
(1.2608797E+06 2.2610001E+00 )
(1.2614469E+06 2.3557559E+00 )
(1.2626119E+06 2.4505177E+00 )
(1.2655616E+06 2.5711386E+00 )
(1.2679136E+06 2.6917535E+00 )
(1.2690647E+06 2.8295833E+00 )
(1.2708246E+06 2.9329649E+00 )
(1.2725678E+06 3.0880280E+00 )
(1.2754844E+06 3.3120122E+00 )
(1.2755176E+06 3.2086490E+00 )
(1.2784285E+06 3.4498603E+00 )
(1.2813367E+06 3.6996853E+00 )
(1.2813755E+06 3.5790949E+00 )
(1.2878892E+06 3.7686612E+00 )
(1.2932518E+06 3.8203978E+00 )
(1.2956703E+06 3.7342861E+00 )
(1.2980915E+06 3.6395609E+00 )
(1.3011021E+06 3.5706826E+00 )
(1.3017219E+06 3.5017799E+00 )
(1.3059417E+06 3.3898457E+00 )
(1.3095638E+06 3.2779055E+00 )
(1.3095998E+06 3.1659287E+00 )
(1.3114233E+06 3.0711973E+00 )
(1.3138445E+06 2.9764721E+00 )
(1.3192569E+06 2.8731638E+00 )
(1.3216671E+06 2.8128929E+00 )
(1.3264818E+06 2.7095785E+00 )
(1.3306906E+06 2.6320988E+00 )
(1.3331062E+06 2.5546008E+00 )
(1.3367090E+06 2.5029557E+00 )
(1.3444513E+06 2.5891711E+00 )
(1.3473899E+06 2.7442464E+00 )
(1.3521161E+06 2.9165673E+00 )
(1.3550354E+06 3.1319379E+00 )
(1.3579741E+06 3.2870132E+00 )
(1.3591141E+06 3.4592975E+00 )
(1.3632564E+06 3.5885442E+00 )
(1.3673960E+06 3.7264046E+00 )
(1.3727420E+06 3.8298227E+00 )
(1.3805424E+06 3.7351524E+00 )
(1.3817849E+06 3.5887333E+00 )
(1.3872056E+06 3.4595842E+00 )
(1.3908471E+06 3.2873487E+00 )
(1.3962623E+06 3.1754268E+00 )
(1.3998899E+06 3.0462594E+00 )
(1.4035120E+06 2.9343191E+00 )
(1.4077208E+06 2.8568394E+00 )
(1.4101420E+06 2.7621142E+00 )
(1.4149457E+06 2.6932541E+00 )
(1.4179618E+06 2.6071486E+00 )
(1.4287202E+06 2.6072584E+00 )
(1.4322538E+06 2.7709535E+00 )
(1.4333938E+06 2.9432377E+00 )
(1.4339417E+06 3.0982887E+00 )
(1.4368970E+06 3.2016824E+00 )
(1.4391439E+06 3.6496142E+00 )
(1.4392435E+06 3.3395245E+00 )
(1.4397914E+06 3.4945754E+00 )
(1.4438949E+06 3.7444126E+00 )
(1.4486433E+06 3.8478246E+00 )
(1.4497916E+06 3.9942681E+00 )
(1.4539395E+06 4.1062876E+00 )
(1.4599026E+06 4.1494166E+00 )
(1.4653122E+06 4.0547219E+00 )
(1.4671468E+06 3.9255362E+00 )
(1.4713749E+06 3.7877612E+00 )
(1.4749915E+06 3.6930482E+00 )
(1.4780242E+06 3.5552611E+00 )
(1.4780519E+06 3.4691250E+00 )
(1.4846735E+06 3.3227609E+00 )
(1.4882874E+06 3.2366615E+00 )
(1.4942836E+06 3.1764272E+00 )
(1.4996822E+06 3.1161869E+00 )
(1.5068794E+06 3.0387377E+00 )
(1.5134291E+06 3.1163272E+00 )
(1.5169516E+06 3.3144767E+00 )
(1.5186008E+06 3.7624023E+00 )
(1.5186506E+06 3.6073575E+00 )
(1.5187004E+06 3.4523126E+00 )
(1.5203303E+06 3.9605335E+00 )
(1.5274195E+06 4.2190148E+00 )
(1.5274527E+06 4.1156516E+00 )
(1.5291766E+06 4.3310099E+00 )
(1.5327268E+06 4.4430234E+00 )
(1.5368802E+06 4.5378157E+00 )
(1.5428184E+06 4.6584672E+00 )
(1.5499547E+06 4.7705172E+00 )
(1.5571602E+06 4.6672272E+00 )
(1.5613551E+06 4.6328155E+00 )
(1.5685717E+06 4.4950710E+00 )
(1.5709818E+06 4.4348002E+00 )
(1.5751933E+06 4.3487069E+00 )
(1.5794270E+06 4.1937047E+00 )
(1.5836385E+06 4.1076114E+00 )
(1.5896708E+06 3.9354003E+00 )
(1.5956836E+06 3.8234845E+00 )
(1.6028172E+06 3.9441481E+00 )
(1.6051720E+06 4.0561494E+00 )
(1.6075185E+06 4.1939914E+00 )
(1.6110576E+06 4.3404593E+00 )
(1.6140018E+06 4.4783074E+00 )
(1.6187501E+06 4.5817195E+00 )
(1.6240933E+06 4.6937512E+00 )
(1.6246163E+06 4.9263246E+00 )
(1.6257342E+06 5.1675177E+00 )
(1.6268438E+06 5.4345516E+00 )
(1.6268936E+06 5.2795067E+00 )
(1.6279839E+06 5.6068358E+00 )
(1.6301726E+06 6.2356532E+00 )
(1.6308367E+06 6.0289329E+00 )
(1.6308921E+06 5.8566608E+00 )
(1.6324915E+06 6.4596313E+00 )
(1.6336094E+06 6.7008244E+00 )
(1.6371346E+06 6.8903602E+00 )
(1.6395973E+06 6.6664310E+00 )
(1.6432388E+06 6.4941955E+00 )
(1.6462882E+06 6.3047267E+00 )
(1.6505357E+06 6.1066566E+00 )
(1.6523813E+06 5.9430164E+00 )
(1.6572292E+06 5.7363388E+00 )
(1.6590583E+06 5.6243802E+00 )
(1.6621076E+06 5.4349115E+00 )
(1.6657408E+06 5.2885168E+00 )
(1.6723569E+06 5.1593799E+00 )
(1.6759846E+06 5.0302124E+00 )
(1.6802044E+06 4.9182783E+00 )
(1.6873988E+06 4.8494427E+00 )
(1.6922163E+06 4.7375147E+00 )
(1.7018098E+06 4.6428626E+00 )
(1.7030412E+06 4.5308980E+00 )
(1.7114421E+06 4.4276202E+00 )
(1.7162402E+06 4.3759873E+00 )
(1.7198457E+06 4.3157287E+00 )
(1.7210881E+06 4.1693097E+00 )
(1.7276987E+06 4.0573999E+00 )
(1.7307204E+06 3.9540672E+00 )
(1.7355462E+06 3.8162984E+00 )
(1.7415646E+06 3.6871553E+00 )
(1.7457844E+06 3.5752212E+00 )
(1.7482084E+06 3.4718824E+00 )
(1.7542351E+06 3.3168985E+00 )
(1.7578544E+06 3.2135719E+00 )
(1.7614710E+06 3.1188589E+00 )
(1.7710452E+06 3.0845020E+00 )
(1.7859874E+06 3.0846546E+00 )
(1.7979440E+06 3.0761630E+00 )
(1.8021555E+06 2.9900696E+00 )
(1.8105592E+06 2.8781782E+00 )
(1.8153712E+06 2.7834774E+00 )
(1.8213702E+06 2.7146295E+00 )
(1.8309637E+06 2.6199775E+00 )
(1.8363734E+06 2.5252828E+00 )
(1.8429840E+06 2.4133731E+00 )
(1.8520019E+06 2.2498061E+00 )
(1.8585350E+06 2.3790773E+00 )
(1.8650764E+06 2.4825076E+00 )
(1.8662192E+06 2.6461782E+00 )
(1.8691551E+06 2.8098672E+00 )
(1.8726831E+06 2.9907895E+00 )
(1.8750324E+06 3.1200179E+00 )
(1.8797862E+06 3.2062027E+00 )
(1.8875701E+06 3.1632140E+00 )
(1.8935691E+06 3.0943662E+00 )
(1.8966046E+06 2.9479655E+00 )
(1.9020392E+06 2.7757483E+00 )
(1.9056641E+06 2.6551945E+00 )
(1.9098728E+06 2.5777147E+00 )
(1.9158912E+06 2.4485717E+00 )
(1.9242893E+06 2.3539075E+00 )
(1.9273082E+06 2.2591883E+00 )
(1.9344999E+06 2.1989663E+00 )
(1.9410911E+06 2.1473518E+00 )
(1.9452473E+06 2.2335305E+00 )
(1.9487975E+06 2.3455440E+00 )
(1.9529426E+06 2.4661771E+00 )
(1.9570821E+06 2.6040375E+00 )
(1.9594314E+06 2.7332659E+00 )
(1.9659811E+06 2.8108554E+00 )
(1.9695838E+06 2.7592104E+00 )
(1.9731949E+06 2.6817246E+00 )
(1.9797972E+06 2.5956557E+00 )
(1.9840087E+06 2.5095624E+00 )
(1.9864271E+06 2.4234507E+00 )
(1.9924511E+06 2.2770805E+00 )
(2.0014413E+06 2.1996496E+00 )
(2.0080381E+06 2.1308078E+00 )
(2.0158330E+06 2.0533647E+00 )
(2.0206339E+06 1.9931183E+00 )
(2.0307891E+06 2.0104492E+00 )
(2.0343337E+06 2.1396899E+00 )
(2.0384871E+06 2.2344822E+00 )
(2.0408447E+06 2.3378698E+00 )
(2.0431912E+06 2.4757119E+00 )
(2.0581169E+06 2.5275460E+00 )
(2.0634241E+06 2.7515546E+00 )
(2.0634656E+06 2.6223505E+00 )
(2.0663572E+06 2.9238571E+00 )
(2.0728931E+06 3.0445147E+00 )
(2.0824894E+06 2.9412490E+00 )
(2.0855498E+06 2.7173259E+00 )
(2.0861226E+06 2.7948544E+00 )
(2.0915627E+06 2.6054100E+00 )
(2.0993603E+06 2.5193533E+00 )
(2.1041723E+06 2.4246525E+00 )
(2.1149390E+06 2.3989215E+00 )
(2.1203100E+06 2.4248172E+00 )
(2.1232458E+06 2.5885061E+00 )
(2.1261956E+06 2.7091271E+00 )
(2.1303517E+06 2.7953058E+00 )
(2.1321116E+06 2.8986874E+00 )
(2.1368599E+06 3.0020994E+00 )
(2.1422198E+06 3.0624495E+00 )
(2.1541985E+06 2.9850491E+00 )
(2.1673726E+06 2.9076609E+00 )
(2.1745643E+06 2.8474389E+00 )
(2.1829735E+06 2.7183202E+00 )
(2.1913909E+06 2.5633608E+00 )
(2.1979766E+06 2.5289735E+00 )
(2.2104922E+06 2.6410784E+00 )
(2.2146207E+06 2.8133932E+00 )
(2.2187575E+06 2.9598671E+00 )
(2.2246956E+06 3.0805186E+00 )
(2.2342144E+06 3.2184338E+00 )
(2.2444416E+06 3.0118110E+00 )
(2.2510632E+06 2.8654469E+00 )
(2.2612766E+06 2.7018922E+00 )
(2.2666835E+06 2.6158110E+00 )
(2.2732913E+06 2.5125149E+00 )
(2.2805106E+06 2.3661568E+00 )
(2.2876635E+06 2.4265253E+00 )
(2.2905496E+06 2.7452591E+00 )
(2.2905994E+06 2.5902142E+00 )
(2.2952564E+06 2.9778752E+00 )
(2.2987817E+06 3.1674110E+00 )
(2.3017148E+06 3.3397136E+00 )
(2.3064272E+06 3.5551025E+00 )
(2.3165630E+06 3.6327286E+00 )
(2.3255643E+06 3.5208433E+00 )
(2.3381297E+06 3.4779033E+00 )
(2.3411597E+06 3.3487298E+00 )
(2.3447984E+06 3.1851079E+00 )
(2.3484316E+06 3.0387133E+00 )
(2.3532463E+06 2.9353989E+00 )
(2.3580085E+06 2.9957429E+00 )
(2.3657425E+06 3.1077990E+00 )
(2.3704797E+06 3.2456655E+00 )
(2.3728345E+06 3.3576667E+00 )
(2.3787865E+06 3.4352501E+00 )
(2.3895284E+06 3.4870416E+00 )
(2.3990804E+06 3.5215936E+00 )
(2.4074536E+06 3.5044518E+00 )
(2.4134609E+06 3.4097632E+00 )
(2.4170803E+06 3.3064365E+00 )
(2.4189038E+06 3.2117052E+00 )
(2.4249139E+06 3.1084030E+00 )
(2.4279273E+06 3.0309110E+00 )
(2.4333480E+06 2.9017619E+00 )
(2.4375817E+06 2.7467597E+00 )
(2.4465747E+06 2.6607152E+00 )
(2.4507724E+06 2.6176899E+00 )
(2.4585811E+06 2.4971788E+00 )
(2.4651363E+06 2.5575411E+00 )
(2.4680667E+06 2.7384573E+00 )
(2.4692206E+06 2.8676735E+00 )
(2.4709279E+06 3.1347135E+00 )
(2.4738637E+06 3.2984024E+00 )
(2.4773558E+06 3.5913015E+00 )
(2.4779120E+06 3.7205117E+00 )
(2.4779978E+06 3.4534900E+00 )
(2.4820599E+06 3.8325312E+00 )
(2.4898326E+06 3.8239969E+00 )
(2.4976330E+06 3.7293266E+00 )
(2.5018445E+06 3.6432333E+00 )
(2.5066703E+06 3.5054644E+00 )
(2.5097169E+06 3.3246093E+00 )
(2.5139423E+06 3.1954479E+00 )
(2.5151819E+06 3.0576425E+00 )
(2.5206109E+06 2.9026525E+00 )
(2.5260344E+06 2.7648898E+00 )
(2.5332482E+06 2.6357590E+00 )
(2.5440482E+06 2.5066647E+00 )
(2.5511347E+06 2.7737596E+00 )
(2.5512011E+06 2.5670331E+00 )
(2.5564586E+06 2.9460866E+00 )
(2.5593723E+06 3.1786843E+00 )
(2.5598759E+06 3.4715529E+00 )
(2.5617271E+06 3.2906856E+00 )
(2.5633874E+06 3.7041568E+00 )
(2.5669127E+06 3.8936927E+00 )
(2.5722587E+06 3.9971108E+00 )
(2.5746135E+06 4.1091121E+00 )
(2.5799899E+06 4.1177806E+00 )
(2.5848074E+06 4.0058525E+00 )
(2.5848434E+06 3.8938757E+00 )
(2.5866697E+06 3.7905308E+00 )
(2.5903001E+06 3.6527497E+00 )
(2.5921264E+06 3.5494048E+00 )
(2.5933577E+06 3.4374402E+00 )
(2.5963766E+06 3.3427210E+00 )
(2.5988227E+06 3.1704734E+00 )
(2.6036458E+06 3.0413181E+00 )
(2.6048744E+06 2.9379671E+00 )
(2.6132835E+06 2.8088485E+00 )
(2.6199135E+06 2.6366435E+00 )
(2.6259374E+06 2.4902733E+00 )
(2.6336853E+06 2.5592614E+00 )
(2.6396207E+06 2.6885264E+00 )
(2.6407082E+06 3.0244691E+00 )
(2.6413584E+06 2.8608168E+00 )
(2.6430380E+06 3.2139928E+00 )
(2.6458799E+06 3.6705443E+00 )
(2.6464222E+06 3.8428224E+00 )
(2.6477283E+06 3.4982905E+00 )
(2.6477753E+06 3.3518592E+00 )
(2.6517350E+06 4.0496038E+00 )
(2.6570893E+06 4.1271811E+00 )
(2.6648732E+06 4.0841924E+00 )
(2.6696990E+06 3.9464236E+00 )
(2.6733266E+06 3.8172561E+00 )
(2.6775271E+06 3.7656172E+00 )
(2.6775713E+06 3.6277996E+00 )
(2.6823861E+06 3.5244851E+00 )
(2.6860165E+06 3.3867041E+00 )
(2.6890271E+06 3.3178258E+00 )
(2.6950483E+06 3.1800691E+00 )
(2.6962768E+06 3.0767181E+00 )
(2.7016948E+06 2.9561825E+00 )
(2.7059119E+06 2.8528620E+00 )
(2.7173178E+06 2.6979331E+00 )
(2.7203312E+06 2.6204411E+00 )
(2.7261863E+06 2.9995007E+00 )
(2.7262555E+06 2.7841606E+00 )
(2.7267287E+06 3.1717788E+00 )
(2.7296646E+06 3.3354678E+00 )
(2.7319502E+06 3.6628091E+00 )
(2.7319972E+06 3.5163778E+00 )
(2.7336326E+06 4.0073715E+00 )
(2.7336796E+06 3.8609403E+00 )
(2.7347975E+06 4.1021333E+00 )
(2.7401352E+06 4.2313923E+00 )
(2.7484808E+06 4.3003865E+00 )
(2.7520420E+06 4.3779455E+00 )
(2.7573853E+06 4.4899773E+00 )
(2.7591313E+06 4.6364268E+00 )
(2.7615470E+06 4.5589288E+00 )
(2.7639737E+06 4.4469764E+00 )
(2.7688161E+06 4.2575259E+00 )
(2.7706451E+06 4.1455674E+00 )
(2.7713065E+06 3.9474606E+00 )
(2.7713314E+06 3.8699382E+00 )
(2.7731660E+06 3.7407524E+00 )
(2.7773830E+06 3.6374319E+00 )
(2.7840877E+06 3.2326597E+00 )
(2.7846328E+06 3.3963242E+00 )
(2.7864867E+06 3.2068433E+00 )
(2.7907038E+06 3.1035227E+00 )
(2.7973061E+06 3.0174538E+00 )
(2.8057042E+06 2.9227896E+00 )
(2.8086539E+06 3.0434105E+00 )
(2.8103667E+06 3.2932233E+00 )
(2.8104055E+06 3.1726329E+00 )
(2.8115178E+06 3.4310532E+00 )
(2.8168694E+06 3.5172441E+00 )
(2.8185462E+06 3.8790337E+00 )
(2.8185711E+06 3.8015113E+00 )
(2.8196614E+06 4.1288404E+00 )
(2.8213714E+06 4.3872668E+00 )
(2.8255248E+06 4.4820591E+00 )
(2.8273151E+06 4.4906910E+00 )
(2.8368616E+06 4.5424702E+00 )
(2.8428911E+06 4.3788728E+00 )
(2.8459459E+06 4.1721768E+00 )
(2.8537325E+06 4.1205745E+00 )
(2.8549805E+06 3.9569282E+00 )
(2.8562340E+06 3.7760548E+00 )
(2.8658635E+06 3.5694259E+00 )
(2.8664971E+06 3.4574552E+00 )
(2.8701331E+06 3.3024469E+00 )
(2.8761404E+06 3.2077583E+00 )
(2.8797570E+06 3.1130453E+00 )
(2.8839741E+06 3.0097247E+00 )
(2.8923334E+06 3.0356510E+00 )
(2.8934845E+06 3.1734808E+00 )
(2.8982273E+06 3.2941200E+00 )
(2.9017637E+06 3.4492015E+00 )
(2.9040936E+06 3.6387252E+00 )
(2.9069105E+06 4.1727990E+00 )
(2.9069603E+06 4.0177542E+00 )
(2.9070267E+06 3.8110277E+00 )
(2.9098325E+06 4.3795560E+00 )
(2.9115758E+06 4.5346192E+00 )
(2.9157126E+06 4.6810931E+00 )
(2.9205162E+06 4.6122331E+00 )
(2.9223481E+06 4.4916610E+00 )
(2.9247803E+06 4.3624813E+00 )
(2.9313964E+06 4.2333444E+00 )
(2.9332255E+06 4.1213858E+00 )
(2.9362610E+06 3.9749851E+00 )
(2.9392826E+06 3.8716524E+00 )
(2.9405278E+06 3.7166197E+00 )
(2.9429573E+06 3.5960537E+00 )
(2.9477804E+06 3.4668984E+00 )
(2.9514136E+06 3.3205038E+00 )
(2.9574237E+06 3.2172016E+00 )
(2.9634836E+06 2.9588545E+00 )
(2.9640398E+06 3.0880646E+00 )
(2.9718817E+06 2.8641902E+00 )
(2.9796074E+06 3.0020872E+00 )
(2.9825378E+06 3.1830034E+00 )
(2.9836723E+06 3.3725148E+00 )
(2.9871976E+06 3.5620507E+00 )
(2.9912541E+06 3.9583191E+00 )
(2.9913288E+06 3.7257518E+00 )
(2.9923831E+06 4.1650578E+00 )
(2.9995222E+06 4.2684942E+00 )
(2.9999898E+06 4.6733397E+00 )
(3.0012350E+06 4.5183070E+00 )
(3.0077404E+06 4.7337142E+00 )
(3.0131667E+06 4.5873378E+00 )
(3.0138142E+06 4.4322991E+00 )
(3.0174529E+06 4.2686772E+00 )
(3.0222787E+06 4.1309084E+00 )
(3.0260005E+06 3.7088784E+00 )
(3.0271294E+06 3.9156171E+00 )
(3.0302341E+06 3.5538763E+00 )
(3.0338673E+06 3.4074816E+00 )
(3.0375088E+06 3.2352462E+00 )
(3.0441526E+06 3.0199732E+00 )
(3.0513691E+06 2.8822288E+00 )
(3.0579908E+06 2.7358646E+00 )
(3.0640009E+06 2.6325624E+00 )
(3.0681432E+06 2.7618092E+00 )
(3.0697260E+06 3.4164613E+00 )
(3.0698007E+06 3.1838940E+00 )
(3.0698699E+06 2.9685539E+00 )
(3.0714554E+06 3.6145924E+00 )
(3.0779719E+06 3.7955452E+00 )
(3.0796792E+06 4.0625852E+00 )
(3.0820119E+06 4.2434952E+00 )
(3.0843694E+06 4.3468829E+00 )
(3.0873994E+06 4.2177093E+00 )
(3.0886308E+06 4.1057447E+00 )
(3.0922639E+06 3.9593501E+00 )
(3.0946962E+06 3.8301704E+00 )
(3.0977262E+06 3.7009969E+00 )
(3.1019958E+06 3.4340179E+00 )
(3.1068465E+06 3.2187266E+00 )
(3.1135041E+06 2.9603856E+00 )
(3.1171456E+06 2.7881502E+00 )
(3.1225968E+06 2.5642514E+00 )
(3.1274032E+06 2.4867778E+00 )
(3.1364156E+06 2.3404380E+00 )
(3.1406354E+06 2.2285039E+00 )
(3.1484414E+06 2.1166064E+00 )
(3.1591832E+06 2.1683978E+00 )
(3.1608988E+06 2.4095970E+00 )
(3.1632426E+06 2.5560526E+00 )
(3.1655780E+06 2.7283491E+00 )
(3.1667042E+06 2.9437014E+00 )
(3.1696235E+06 3.1590719E+00 )
(3.1743663E+06 3.2797112E+00 )
(3.1780077E+06 3.1074757E+00 )
(3.1816465E+06 2.9438539E+00 )
(3.1906395E+06 2.8578093E+00 )
(3.1966967E+06 2.6080759E+00 )
(3.2051806E+06 2.2463899E+00 )
(3.2130087E+06 2.0655836E+00 )
(3.2202059E+06 1.9881344E+00 )
(3.2256183E+06 1.8848260E+00 )
(3.2358012E+06 1.8160209E+00 )
(3.2423398E+06 1.9280649E+00 )
(3.2446559E+06 2.1606565E+00 )
(3.2487761E+06 2.3588121E+00 )
(3.2510976E+06 2.5741766E+00 )
(3.2538481E+06 3.3149769E+00 )
(3.2538979E+06 3.1599321E+00 )
(3.2539782E+06 2.9101376E+00 )
(3.2609568E+06 3.5131630E+00 )
(3.2645014E+06 3.6424036E+00 )
(3.2717097E+06 3.5305000E+00 )
(3.2735498E+06 3.3840871E+00 )
(3.2789733E+06 3.2463243E+00 )
(3.2832125E+06 3.0740950E+00 )
(3.2874959E+06 2.7640480E+00 )
(3.2899476E+06 2.5745731E+00 )
(3.2941785E+06 2.4281845E+00 )
(3.2965997E+06 2.3334593E+00 )
(3.3020176E+06 2.2129238E+00 )
(3.3074273E+06 2.1182291E+00 )
(3.3182217E+06 2.0063620E+00 )
(3.3266254E+06 1.8944706E+00 )
(3.3300953E+06 2.2562785E+00 )
(3.3301479E+06 2.0926201E+00 )
(3.3330035E+06 2.5061035E+00 )
(3.3347329E+06 2.7042347E+00 )
(3.3363544E+06 3.2382963E+00 )
(3.3364125E+06 3.0574107E+00 )
(3.3364762E+06 2.8592978E+00 )
(3.3374862E+06 3.4364214E+00 )
(3.3421792E+06 3.7121055E+00 )
(3.3444814E+06 3.9877652E+00 )
(3.3480094E+06 4.1686875E+00 )
(3.3509757E+06 4.2376268E+00 )
(3.3570135E+06 4.0481885E+00 )
(3.3576638E+06 3.8845362E+00 )
(3.3607159E+06 3.6864538E+00 )
(3.3625726E+06 3.4883592E+00 )
(3.3661947E+06 3.3764190E+00 )
(3.3674399E+06 3.2213863E+00 )
(3.3710814E+06 3.0491509E+00 )
(3.3753151E+06 2.8941487E+00 )
(3.3771441E+06 2.7821902E+00 )
(3.3819754E+06 2.6271942E+00 )
(3.3862229E+06 2.4291240E+00 )
(3.3940372E+06 2.2913857E+00 )
(3.3994441E+06 2.2053045E+00 )
(3.4030662E+06 2.0933643E+00 )
(3.4078726E+06 2.0158907E+00 )
(3.4167688E+06 2.2313222E+00 )
(3.4178591E+06 2.5586514E+00 )
(3.4179172E+06 2.3777657E+00 )
(3.4201530E+06 2.8601519E+00 )
(3.4202055E+06 2.6964934E+00 )
(3.4236589E+06 3.1099829E+00 )
(3.4240518E+06 3.7473956E+00 )
(3.4241016E+06 3.5923508E+00 )
(3.4241708E+06 3.3770107E+00 )
(3.4263789E+06 3.9455329E+00 )
(3.4304908E+06 4.1695293E+00 )
(3.4315977E+06 4.4451768E+00 )
(3.4345308E+06 4.6174793E+00 )
(3.4410860E+06 4.6778417E+00 )
(3.4459201E+06 4.5142320E+00 )
(3.4471515E+06 4.4022674E+00 )
(3.4495893E+06 4.2558605E+00 )
(3.4502146E+06 4.1697306E+00 )
(3.4502700E+06 3.9974585E+00 )
(3.4533027E+06 3.8596714E+00 )
(3.4560000E+06 3.8596714E+00 )
)
